D:\test\word_template_to_pdf\src\main\java\apose\javadog\net\controller\WordController.java
D:\test\word_template_to_pdf\src\main\java\apose\javadog\net\entity\Education.java
D:\test\word_template_to_pdf\src\main\java\apose\javadog\net\entity\WorkExperience.java
D:\test\word_template_to_pdf\src\main\java\apose\javadog\net\entity\Interview.java
D:\test\word_template_to_pdf\src\main\java\apose\javadog\net\BootAposeApplication.java
D:\test\word_template_to_pdf\src\main\java\apose\javadog\net\entity\BaseInfo.java
